<?xml version="1.0" encoding="UTF-8" standalone="no"?>
<!-- Created with Inkscape (http://www.inkscape.org/) -->

<svg
   xmlns:dc="http://purl.org/dc/elements/1.1/"
   xmlns:cc="http://creativecommons.org/ns#"
   xmlns:rdf="http://www.w3.org/1999/02/22-rdf-syntax-ns#"
   xmlns:svg="http://www.w3.org/2000/svg"
   xmlns="http://www.w3.org/2000/svg"
   xmlns:xlink="http://www.w3.org/1999/xlink"
   xmlns:sodipodi="http://sodipodi.sourceforge.net/DTD/sodipodi-0.dtd"
   xmlns:inkscape="http://www.inkscape.org/namespaces/inkscape"
   width="125.75315mm"
   height="102.6321mm"
   viewBox="0 0 125.75315 102.6321"
   version="1.1"
   id="svg15059"
   inkscape:version="0.92.4 (5da689c313, 2019-01-14)"
   sodipodi:docname="envelope.svg">
  <defs
     id="defs15053" />
  <sodipodi:namedview
     id="base"
     pagecolor="#ffffff"
     bordercolor="#666666"
     borderopacity="1.0"
     inkscape:pageopacity="0.0"
     inkscape:pageshadow="2"
     inkscape:zoom="0.35"
     inkscape:cx="223.35804"
     inkscape:cy="33.95041"
     inkscape:document-units="mm"
     inkscape:current-layer="layer1"
     showgrid="false"
     fit-margin-top="0"
     fit-margin-left="0"
     fit-margin-right="0"
     fit-margin-bottom="0"
     inkscape:window-width="954"
     inkscape:window-height="1014"
     inkscape:window-x="2880"
     inkscape:window-y="30"
     inkscape:window-maximized="1" />
  <metadata
     id="metadata15056">
    <rdf:RDF>
      <cc:Work
         rdf:about="">
        <dc:format>image/svg+xml</dc:format>
        <dc:type
           rdf:resource="http://purl.org/dc/dcmitype/StillImage" />
        <dc:title></dc:title>
      </cc:Work>
    </rdf:RDF>
  </metadata>
  <g
     inkscape:label="Layer 1"
     inkscape:groupmode="layer"
     id="layer1"
     transform="translate(-27.837709,-89.957756)">
    <g
       id="g14298"
       style="display:inline;fill:#f9f8fa;fill-opacity:1;stroke:#0da86a;stroke-width:10.58333302;stroke-miterlimit:4;stroke-dasharray:none;stroke-opacity:1"
       transform="matrix(0.85990824,0,0,0.85990824,-7.7191328,107.89898)">
      <g
         transform="matrix(6.7219538,0,0,6.7219538,33.806232,-41.851367)"
         id="g14277"
         style="fill:#f9f8fa;fill-opacity:1;stroke:#0da86a;stroke-width:1.5744431;stroke-linecap:round;stroke-linejoin:round;stroke-miterlimit:4;stroke-dasharray:none;stroke-opacity:1">
        <path
           sodipodi:type="inkscape:offset"
           inkscape:radius="0.83165187"
           inkscape:original="M 4 4 C 2.9 4 2 4.9 2 6 L 2 18 C 2 19.1 2.9 20 4 20 L 20 20 C 21.1 20 22 19.1 22 18 L 22 6 C 22 4.9 21.1 4 20 4 L 4 4 z "
           xlink:href="#polyline14265"
           style="fill:#f9f8fa;fill-opacity:1;stroke:#000000;stroke-width:0.09154715;stroke-miterlimit:4;stroke-dasharray:none;stroke-opacity:1"
           id="path14353"
           inkscape:href="#polyline14265"
           d="M 4,3.1679688 C 2.4463717,3.1679688 1.1679688,4.4463717 1.1679688,6 v 12 c 0,1.553628 1.2784029,2.832031 2.8320312,2.832031 h 16 c 1.553628,0 2.832031,-1.278403 2.832031,-2.832031 V 6 C 22.832031,4.4463717 21.553628,3.1679688 20,3.1679688 Z" />
        <path
           id="polyline14265"
           style="fill:#f9f8fa;fill-opacity:1;stroke:#0da86a;stroke-width:1.5744431;stroke-miterlimit:4;stroke-dasharray:none;stroke-opacity:1"
           d="M 22,6 12,13 2,6 M 4,4 h 16 c 1.1,0 2,0.9 2,2 v 12 c 0,1.1 -0.9,2 -2,2 H 4 C 2.9,20 2,19.1 2,18 V 6 C 2,4.9 2.9,4 4,4 Z"
           inkscape:connector-curvature="0" />
      </g>
    </g>
  </g>
</svg>
